…
**Selection Bias**: Particularly for older materials (Chechnya-era),
archival gaps may limit completeness.

**Time Constraints**: The dataset, while diverse, is not exhaustive.

## Analysis and Results

    ## # A tibble: 4 × 3
    ##   country conflict     n
    ##   <chr>   <chr>    <int>
    ## 1 Russia  Chechnya    45
    ## 2 Russia  Ukraine     18
    ## 3 US      Chechnya   111
    ## 4 US      Ukraine    183
    ## # A tibble: 37,374 × 2
    ##    word              n
    ##    <chr>         <int>
    ##  1 security       1877
    ##  2 support        1603
    ##  3 international  1507
    ##  4 global         1091
    ##  5 war             997
    ##  6 cooperation     978
    ##  7 economic        942
    ##  8 peace           919
    ##  9 energy          849
    ## 10 efforts         829
    ## # ℹ 37,364 more rows
…
    ## # A tibble: 4 × 3
    ##   country conflict     n
    ##   <chr>   <chr>    <int>
    ## 1 Russia  Chechnya    45
    ## 2 Russia  Ukraine     18
    ## 3 US      Chechnya   111
    ## 4 US      Ukraine    183
    ## # A tibble: 37,374 × 2
    ##    word              n
    ##    <chr>         <int>
    ##  1 security       1877
    ##  2 support        1603
    ##  3 international  1507
    ##  4 global         1091
    ##  5 war             997
    ##  6 cooperation     978
    ##  7 economic        942
    ##  8 peace           919
    ##  9 energy          849
    ## 10 efforts         829
    ## # ℹ 37,364 more rows
…
